\relax 
\@nameuse{bbl@beforestart}
\catcode `"\active 
\providecommand\csxdef[2]{}
\@writefile{toc}{\providecommand\autonum@processReference[2]{}}
\@writefile{lof}{\providecommand\autonum@processReference[2]{}}
\babel@aux{russian}{}
\citation{poisson_lognormal}
\citation{china_covid}
\citation{nyc_covid}
\citation{gas_price}
\citation{earthquake}
\citation{rainy_days}
\citation{emergency}
\citation{sandstorm_count}
\citation{darma_nil}
\citation{kids_mortality_count}
\citation{air_pollution_count}
\@writefile{toc}{\contentsline {section}{Введение}{3}\protected@file@percent }
\citation{acp_bid_ask}
\citation{acp_covid_egypt}
\citation{zorine_autoregressive}
\bibstyle{utf8gost705u}
\bibdata{biblio}
\bibcite{poisson_lognormal}{1}
\bibcite{china_covid}{2}
\bibcite{nyc_covid}{3}
\bibcite{gas_price}{4}
\bibcite{earthquake}{5}
\bibcite{rainy_days}{6}
\bibcite{emergency}{7}
\bibcite{sandstorm_count}{8}
\bibcite{darma_nil}{9}
\bibcite{kids_mortality_count}{10}
\bibcite{air_pollution_count}{11}
\bibcite{acp_bid_ask}{12}
\bibcite{acp_covid_egypt}{13}
\bibcite{zorine_autoregressive}{14}
